output.vcd
$date
  Wed Mar 16 15:28:47 2022
$end
$version
  GHDL v0
$end
$timescale
  1 fs
$end
$var reg 1 ! t_clk $end
$var reg 1 " t_gel_li $end
$var reg 1 # t_pcsrc_er $end
$var reg 1 $ t_bpris_ex $end
$var reg 32 % t_npc[31:0] $end
$var reg 32 & t_npc_fw_br[31:0] $end
$var reg 32 ' t_pc_plus_4[31:0] $end
$var reg 32 ( t_i_fe[31:0] $end
$scope module etage $end
$var reg 32 ) npc[31:0] $end
$var reg 32 * npc_fw_br[31:0] $end
$var reg 1 + pcsrc_er $end
$var reg 1 , bpris_ex $end
$var reg 1 - gel_li $end
$var reg 1 . clk $end
$var reg 32 / pc_plus_4[31:0] $end
$var reg 32 0 i_fe[31:0] $end
$var reg 32 1 pc_inter[31:0] $end
$var reg 32 2 pc_reg_in[31:0] $end
$var reg 32 3 pc_reg_out[31:0] $end
$var reg 32 4 sig_pc_plus_4[31:0] $end
$var reg 32 5 sig_4[31:0] $end
$scope module pc $end
$var reg 32 6 source[31:0] $end
$var reg 32 7 output[31:0] $end
$var reg 1 8 wr $end
$var reg 1 9 raz $end
$var reg 1 : clk $end
$var reg 32 ; sig[31:0] $end
$upscope $end
$scope module imem $end
$var reg 32 < addr[31:0] $end
$var reg 32 = instr[31:0] $end
$scope module mem $end
$var reg 32 > a[31:0] $end
$var reg 32 ? rd[31:0] $end
$upscope $end
$upscope $end
$scope module add $end
$var reg 32 @ a[31:0] $end
$var reg 32 A b[31:0] $end
$var reg 1 B cin $end
$var reg 32 C s[31:0] $end
$var reg 1 D c30 $end
$var reg 1 E c31 $end
$var reg 33 F carry[32:0] $end
$scope module for1(0) $end
$scope module addi $end
$var reg 1 G a $end
$var reg 1 H b $end
$var reg 1 I cin $end
$var reg 1 J s $end
$var reg 1 K cout $end
$upscope $end
$upscope $end
$scope module for1(1) $end
$scope module addi $end
$var reg 1 L a $end
$var reg 1 M b $end
$var reg 1 N cin $end
$var reg 1 O s $end
$var reg 1 P cout $end
$upscope $end
$upscope $end
$scope module for1(2) $end
$scope module addi $end
$var reg 1 Q a $end
$var reg 1 R b $end
$var reg 1 S cin $end
$var reg 1 T s $end
$var reg 1 U cout $end
$upscope $end
$upscope $end
$scope module for1(3) $end
$scope module addi $end
$var reg 1 V a $end
$var reg 1 W b $end
$var reg 1 X cin $end
$var reg 1 Y s $end
$var reg 1 Z cout $end
$upscope $end
$upscope $end
$scope module for1(4) $end
$scope module addi $end
$var reg 1 [ a $end
$var reg 1 \ b $end
$var reg 1 ] cin $end
$var reg 1 ^ s $end
$var reg 1 _ cout $end
$upscope $end
$upscope $end
$scope module for1(5) $end
$scope module addi $end
$var reg 1 ` a $end
$var reg 1 a b $end
$var reg 1 b cin $end
$var reg 1 c s $end
$var reg 1 d cout $end
$upscope $end
$upscope $end
$scope module for1(6) $end
$scope module addi $end
$var reg 1 e a $end
$var reg 1 f b $end
$var reg 1 g cin $end
$var reg 1 h s $end
$var reg 1 i cout $end
$upscope $end
$upscope $end
$scope module for1(7) $end
$scope module addi $end
$var reg 1 j a $end
$var reg 1 k b $end
$var reg 1 l cin $end
$var reg 1 m s $end
$var reg 1 n cout $end
$upscope $end
$upscope $end
$scope module for1(8) $end
$scope module addi $end
$var reg 1 o a $end
$var reg 1 p b $end
$var reg 1 q cin $end
$var reg 1 r s $end
$var reg 1 s cout $end
$upscope $end
$upscope $end
$scope module for1(9) $end
$scope module addi $end
$var reg 1 t a $end
$var reg 1 u b $end
$var reg 1 v cin $end
$var reg 1 w s $end
$var reg 1 x cout $end
$upscope $end
$upscope $end
$scope module for1(10) $end
$scope module addi $end
$var reg 1 y a $end
$var reg 1 z b $end
$var reg 1 { cin $end
$var reg 1 | s $end
$var reg 1 } cout $end
$upscope $end
$upscope $end
$scope module for1(11) $end
$scope module addi $end
$var reg 1 !" a $end
$var reg 1 "" b $end
$var reg 1 #" cin $end
$var reg 1 $" s $end
$var reg 1 %" cout $end
$upscope $end
$upscope $end
$scope module for1(12) $end
$scope module addi $end
$var reg 1 &" a $end
$var reg 1 '" b $end
$var reg 1 (" cin $end
$var reg 1 )" s $end
$var reg 1 *" cout $end
$upscope $end
$upscope $end
$scope module for1(13) $end
$scope module addi $end
$var reg 1 +" a $end
$var reg 1 ," b $end
$var reg 1 -" cin $end
$var reg 1 ." s $end
$var reg 1 /" cout $end
$upscope $end
$upscope $end
$scope module for1(14) $end
$scope module addi $end
$var reg 1 0" a $end
$var reg 1 1" b $end
$var reg 1 2" cin $end
$var reg 1 3" s $end
$var reg 1 4" cout $end
$upscope $end
$upscope $end
$scope module for1(15) $end
$scope module addi $end
$var reg 1 5" a $end
$var reg 1 6" b $end
$var reg 1 7" cin $end
$var reg 1 8" s $end
$var reg 1 9" cout $end
$upscope $end
$upscope $end
$scope module for1(16) $end
$scope module addi $end
$var reg 1 :" a $end
$var reg 1 ;" b $end
$var reg 1 <" cin $end
$var reg 1 =" s $end
$var reg 1 >" cout $end
$upscope $end
$upscope $end
$scope module for1(17) $end
$scope module addi $end
$var reg 1 ?" a $end
$var reg 1 @" b $end
$var reg 1 A" cin $end
$var reg 1 B" s $end
$var reg 1 C" cout $end
$upscope $end
$upscope $end
$scope module for1(18) $end
$scope module addi $end
$var reg 1 D" a $end
$var reg 1 E" b $end
$var reg 1 F" cin $end
$var reg 1 G" s $end
$var reg 1 H" cout $end
$upscope $end
$upscope $end
$scope module for1(19) $end
$scope module addi $end
$var reg 1 I" a $end
$var reg 1 J" b $end
$var reg 1 K" cin $end
$var reg 1 L" s $end
$var reg 1 M" cout $end
$upscope $end
$upscope $end
$scope module for1(20) $end
$scope module addi $end
$var reg 1 N" a $end
$var reg 1 O" b $end
$var reg 1 P" cin $end
$var reg 1 Q" s $end
$var reg 1 R" cout $end
$upscope $end
$upscope $end
$scope module for1(21) $end
$scope module addi $end
$var reg 1 S" a $end
$var reg 1 T" b $end
$var reg 1 U" cin $end
$var reg 1 V" s $end
$var reg 1 W" cout $end
$upscope $end
$upscope $end
$scope module for1(22) $end
$scope module addi $end
$var reg 1 X" a $end
$var reg 1 Y" b $end
$var reg 1 Z" cin $end
$var reg 1 [" s $end
$var reg 1 \" cout $end
$upscope $end
$upscope $end
$scope module for1(23) $end
$scope module addi $end
$var reg 1 ]" a $end
$var reg 1 ^" b $end
$var reg 1 _" cin $end
$var reg 1 `" s $end
$var reg 1 a" cout $end
$upscope $end
$upscope $end
$scope module for1(24) $end
$scope module addi $end
$var reg 1 b" a $end
$var reg 1 c" b $end
$var reg 1 d" cin $end
$var reg 1 e" s $end
$var reg 1 f" cout $end
$upscope $end
$upscope $end
$scope module for1(25) $end
$scope module addi $end
$var reg 1 g" a $end
$var reg 1 h" b $end
$var reg 1 i" cin $end
$var reg 1 j" s $end
$var reg 1 k" cout $end
$upscope $end
$upscope $end
$scope module for1(26) $end
$scope module addi $end
$var reg 1 l" a $end
$var reg 1 m" b $end
$var reg 1 n" cin $end
$var reg 1 o" s $end
$var reg 1 p" cout $end
$upscope $end
$upscope $end
$scope module for1(27) $end
$scope module addi $end
$var reg 1 q" a $end
$var reg 1 r" b $end
$var reg 1 s" cin $end
$var reg 1 t" s $end
$var reg 1 u" cout $end
$upscope $end
$upscope $end
$scope module for1(28) $end
$scope module addi $end
$var reg 1 v" a $end
$var reg 1 w" b $end
$var reg 1 x" cin $end
$var reg 1 y" s $end
$var reg 1 z" cout $end
$upscope $end
$upscope $end
$scope module for1(29) $end
$scope module addi $end
$var reg 1 {" a $end
$var reg 1 |" b $end
$var reg 1 }" cin $end
$var reg 1 !# s $end
$var reg 1 "# cout $end
$upscope $end
$upscope $end
$scope module for1(30) $end
$scope module addi $end
$var reg 1 ## a $end
$var reg 1 $# b $end
$var reg 1 %# cin $end
$var reg 1 &# s $end
$var reg 1 '# cout $end
$upscope $end
$upscope $end
$scope module for1(31) $end
$scope module addi $end
$var reg 1 (# a $end
$var reg 1 )# b $end
$var reg 1 *# cin $end
$var reg 1 +# s $end
$var reg 1 ,# cout $end
$upscope $end
$upscope $end
$upscope $end
$upscope $end
$enddefinitions $end
#0
1!
1"
0#
0$
b00000000000000000000000000000000 %
b00000000000000000000000000000000 &
b00000000000000000000000000000100 '
b00000000000000000000000000000000 (
b00000000000000000000000000000000 )
b00000000000000000000000000000000 *
0+
0,
1-
1.
b00000000000000000000000000000100 /
b00000000000000000000000000000000 0
b00000000000000000000000000000100 1
b00000000000000000000000000000100 2
b00000000000000000000000000000000 3
b00000000000000000000000000000100 4
b00000000000000000000000000000100 5
b00000000000000000000000000000100 6
b00000000000000000000000000000000 7
18
19
1:
b00000000000000000000000000000000 ;
b00000000000000000000000000000000 <
b00000000000000000000000000000000 =
b00000000000000000000000000000000 >
b00000000000000000000000000000000 ?
b00000000000000000000000000000000 @
b00000000000000000000000000000100 A
0B
b00000000000000000000000000000100 C
0D
0E
b000000000000000000000000000000000 F
0G
0H
0I
0J
0K
0L
0M
0N
0O
0P
0Q
1R
0S
1T
0U
0V
0W
0X
0Y
0Z
0[
0\
0]
0^
0_
0`
0a
0b
0c
0d
0e
0f
0g
0h
0i
0j
0k
0l
0m
0n
0o
0p
0q
0r
0s
0t
0u
0v
0w
0x
0y
0z
0{
0|
0}
0!"
0""
0#"
0$"
0%"
0&"
0'"
0("
0)"
0*"
0+"
0,"
0-"
0."
0/"
00"
01"
02"
03"
04"
05"
06"
07"
08"
09"
0:"
0;"
0<"
0="
0>"
0?"
0@"
0A"
0B"
0C"
0D"
0E"
0F"
0G"
0H"
0I"
0J"
0K"
0L"
0M"
0N"
0O"
0P"
0Q"
0R"
0S"
0T"
0U"
0V"
0W"
0X"
0Y"
0Z"
0["
0\"
0]"
0^"
0_"
0`"
0a"
0b"
0c"
0d"
0e"
0f"
0g"
0h"
0i"
0j"
0k"
0l"
0m"
0n"
0o"
0p"
0q"
0r"
0s"
0t"
0u"
0v"
0w"
0x"
0y"
0z"
0{"
0|"
0}"
0!#
0"#
0##
0$#
0%#
0&#
0'#
0(#
0)#
0*#
0+#
0,#
#5000000
0!
0.
0:
#10000000
1!
b00000000000000000000000000001000 '
b00000000000000000000000000000001 (
1.
b00000000000000000000000000001000 /
b00000000000000000000000000000001 0
b00000000000000000000000000001000 1
b00000000000000000000000000001000 2
b00000000000000000000000000000100 3
b00000000000000000000000000001000 4
b00000000000000000000000000001000 6
b00000000000000000000000000000100 7
1:
b00000000000000000000000000000100 ;
b00000000000000000000000000000100 <
b00000000000000000000000000000001 =
b00000000000000000000000000000100 >
b00000000000000000000000000000001 ?
b00000000000000000000000000000100 @
b00000000000000000000000000001000 C
b000000000000000000000000000001000 F
1Q
0T
1U
1X
1Y
#15000000
0!
0.
0:
#20000000
1!
b00000000000000000000000000001100 '
b00000000000000000000000000000010 (
1.
b00000000000000000000000000001100 /
b00000000000000000000000000000010 0
b00000000000000000000000000001100 1
b00000000000000000000000000001100 2
b00000000000000000000000000001000 3
b00000000000000000000000000001100 4
b00000000000000000000000000001100 6
b00000000000000000000000000001000 7
1:
b00000000000000000000000000001000 ;
b00000000000000000000000000001000 <
b00000000000000000000000000000010 =
b00000000000000000000000000001000 >
b00000000000000000000000000000010 ?
b00000000000000000000000000001000 @
b00000000000000000000000000001100 C
b000000000000000000000000000000000 F
0Q
1T
0U
1V
0X
1Y
0Z
0]
0^
#25000000
0!
0.
0:
#30000000
1!
b00000000000000000000000000010000 '
b00000000000000000000000000000011 (
1.
b00000000000000000000000000010000 /
b00000000000000000000000000000011 0
b00000000000000000000000000010000 1
b00000000000000000000000000010000 2
b00000000000000000000000000001100 3
b00000000000000000000000000010000 4
b00000000000000000000000000010000 6
b00000000000000000000000000001100 7
1:
b00000000000000000000000000001100 ;
b00000000000000000000000000001100 <
b00000000000000000000000000000011 =
b00000000000000000000000000001100 >
b00000000000000000000000000000011 ?
b00000000000000000000000000001100 @
b00000000000000000000000000010000 C
b000000000000000000000000000011000 F
1Q
0T
1U
1X
0Y
1Z
1]
1^
#35000000
0!
0.
0:
#40000000
1!
b00000000000000000000000000010100 '
b00000000000000000000000000000100 (
1.
b00000000000000000000000000010100 /
b00000000000000000000000000000100 0
b00000000000000000000000000010100 1
b00000000000000000000000000010100 2
b00000000000000000000000000010000 3
b00000000000000000000000000010100 4
b00000000000000000000000000010100 6
b00000000000000000000000000010000 7
1:
b00000000000000000000000000010000 ;
b00000000000000000000000000010000 <
b00000000000000000000000000000100 =
b00000000000000000000000000010000 >
b00000000000000000000000000000100 ?
b00000000000000000000000000010000 @
b00000000000000000000000000010100 C
b000000000000000000000000000000000 F
0Q
1T
0U
0V
0X
0Y
0Z
1[
0]
1^
0_
0b
0c
#45000000
0!
0.
0:
#50000000
1!
b00000000000000000000000000011000 '
b00000000000000000000000000000101 (
1.
b00000000000000000000000000011000 /
b00000000000000000000000000000101 0
b00000000000000000000000000011000 1
b00000000000000000000000000011000 2
b00000000000000000000000000010100 3
b00000000000000000000000000011000 4
b00000000000000000000000000011000 6
b00000000000000000000000000010100 7
1:
b00000000000000000000000000010100 ;
b00000000000000000000000000010100 <
b00000000000000000000000000000101 =
b00000000000000000000000000010100 >
b00000000000000000000000000000101 ?
b00000000000000000000000000010100 @
b00000000000000000000000000011000 C
b000000000000000000000000000001000 F
1Q
0T
1U
1X
1Y
#55000000
0!
0.
0:
#60000000
1!
b00000000000000000000000000011100 '
b00000000000000000000000000000110 (
1.
b00000000000000000000000000011100 /
b00000000000000000000000000000110 0
b00000000000000000000000000011100 1
b00000000000000000000000000011100 2
b00000000000000000000000000011000 3
b00000000000000000000000000011100 4
b00000000000000000000000000011100 6
b00000000000000000000000000011000 7
1:
b00000000000000000000000000011000 ;
b00000000000000000000000000011000 <
b00000000000000000000000000000110 =
b00000000000000000000000000011000 >
b00000000000000000000000000000110 ?
b00000000000000000000000000011000 @
b00000000000000000000000000011100 C
b000000000000000000000000000000000 F
0Q
1T
0U
1V
0X
1Y
0Z
0]
1^
0_
0b
0c
#65000000
0!
0.
0:
#70000000
1!
b00000000000000000000000000100000 '
b00000000000000000000000000000111 (
1.
b00000000000000000000000000100000 /
b00000000000000000000000000000111 0
b00000000000000000000000000100000 1
b00000000000000000000000000100000 2
b00000000000000000000000000011100 3
b00000000000000000000000000100000 4
b00000000000000000000000000100000 6
b00000000000000000000000000011100 7
1:
b00000000000000000000000000011100 ;
b00000000000000000000000000011100 <
b00000000000000000000000000000111 =
b00000000000000000000000000011100 >
b00000000000000000000000000000111 ?
b00000000000000000000000000011100 @
b00000000000000000000000000100000 C
b000000000000000000000000000111000 F
1Q
0T
1U
1X
0Y
1Z
1]
0^
1_
1b
1c
#75000000
0!
0.
0:
#80000000
1!
b00000000000000000000000000100100 '
b00000000000000000000000000001000 (
1.
b00000000000000000000000000100100 /
b00000000000000000000000000001000 0
b00000000000000000000000000100100 1
b00000000000000000000000000100100 2
b00000000000000000000000000100000 3
b00000000000000000000000000100100 4
b00000000000000000000000000100100 6
b00000000000000000000000000100000 7
1:
b00000000000000000000000000100000 ;
b00000000000000000000000000100000 <
b00000000000000000000000000001000 =
b00000000000000000000000000100000 >
b00000000000000000000000000001000 ?
b00000000000000000000000000100000 @
b00000000000000000000000000100100 C
b000000000000000000000000000000000 F
0Q
1T
0U
0V
0X
0Y
0Z
0[
0]
0^
0_
1`
0b
1c
0d
0g
0h
#85000000
0!
0.
0:
#90000000
1!
b00000000000000000000000000101000 '
b00000000000000000000000000001001 (
1.
b00000000000000000000000000101000 /
b00000000000000000000000000001001 0
b00000000000000000000000000101000 1
b00000000000000000000000000101000 2
b00000000000000000000000000100100 3
b00000000000000000000000000101000 4
b00000000000000000000000000101000 6
b00000000000000000000000000100100 7
1:
b00000000000000000000000000100100 ;
b00000000000000000000000000100100 <
b00000000000000000000000000001001 =
b00000000000000000000000000100100 >
b00000000000000000000000000001001 ?
b00000000000000000000000000100100 @
b00000000000000000000000000101000 C
b000000000000000000000000000001000 F
1Q
0T
1U
1X
1Y
#95000000
0!
0.
0:
#100000000
1!
b00000000000000000000000000101100 '
b00000000000000000000000000001010 (
1.
b00000000000000000000000000101100 /
b00000000000000000000000000001010 0
b00000000000000000000000000101100 1
b00000000000000000000000000101100 2
b00000000000000000000000000101000 3
b00000000000000000000000000101100 4
b00000000000000000000000000101100 6
b00000000000000000000000000101000 7
1:
b00000000000000000000000000101000 ;
b00000000000000000000000000101000 <
b00000000000000000000000000001010 =
b00000000000000000000000000101000 >
b00000000000000000000000000001010 ?
b00000000000000000000000000101000 @
b00000000000000000000000000101100 C
b000000000000000000000000000000000 F
0Q
1T
0U
1V
0X
1Y
0Z
0]
0^
#105000000
0!
0.
0:
#110000000
1!
b00000000000000000000000000110000 '
b00000000000000000000000000000000 (
1.
b00000000000000000000000000110000 /
b00000000000000000000000000000000 0
b00000000000000000000000000110000 1
b00000000000000000000000000110000 2
b00000000000000000000000000101100 3
b00000000000000000000000000110000 4
b00000000000000000000000000110000 6
b00000000000000000000000000101100 7
1:
b00000000000000000000000000101100 ;
b00000000000000000000000000101100 <
b00000000000000000000000000000000 =
b00000000000000000000000000101100 >
b00000000000000000000000000000000 ?
b00000000000000000000000000101100 @
b00000000000000000000000000110000 C
b000000000000000000000000000011000 F
1Q
0T
1U
1X
0Y
1Z
1]
1^
#115000000
0!
0.
0:
#120000000
1!
b00000000000000000000000000110100 '
1.
b00000000000000000000000000110100 /
b00000000000000000000000000110100 1
b00000000000000000000000000110100 2
b00000000000000000000000000110000 3
b00000000000000000000000000110100 4
b00000000000000000000000000110100 6
b00000000000000000000000000110000 7
1:
b00000000000000000000000000110000 ;
b00000000000000000000000000110000 <
b00000000000000000000000000110000 >
b00000000000000000000000000110000 @
b00000000000000000000000000110100 C
b000000000000000000000000000000000 F
0Q
1T
0U
0V
0X
0Y
0Z
1[
0]
1^
0_
0b
1c
0d
0g
0h
#125000000
0!
0.
0:
#130000000
1!
b00000000000000000000000000111000 '
1.
b00000000000000000000000000111000 /
b00000000000000000000000000111000 1
b00000000000000000000000000111000 2
b00000000000000000000000000110100 3
b00000000000000000000000000111000 4
b00000000000000000000000000111000 6
b00000000000000000000000000110100 7
1:
b00000000000000000000000000110100 ;
b00000000000000000000000000110100 <
b00000000000000000000000000110100 >
b00000000000000000000000000110100 @
b00000000000000000000000000111000 C
b000000000000000000000000000001000 F
1Q
0T
1U
1X
1Y
#135000000
0!
0.
0:
#140000000
1!
b00000000000000000000000000111100 '
1.
b00000000000000000000000000111100 /
b00000000000000000000000000111100 1
b00000000000000000000000000111100 2
b00000000000000000000000000111000 3
b00000000000000000000000000111100 4
b00000000000000000000000000111100 6
b00000000000000000000000000111000 7
1:
b00000000000000000000000000111000 ;
b00000000000000000000000000111000 <
b00000000000000000000000000111000 >
b00000000000000000000000000111000 @
b00000000000000000000000000111100 C
b000000000000000000000000000000000 F
0Q
1T
0U
1V
0X
1Y
0Z
0]
1^
0_
0b
1c
0d
0g
0h
#145000000
0!
0.
0:
#150000000
1!
b00000000000000000000000001000000 '
1.
b00000000000000000000000001000000 /
b00000000000000000000000001000000 1
b00000000000000000000000001000000 2
b00000000000000000000000000111100 3
b00000000000000000000000001000000 4
b00000000000000000000000001000000 6
b00000000000000000000000000111100 7
1:
b00000000000000000000000000111100 ;
b00000000000000000000000000111100 <
b00000000000000000000000000111100 >
b00000000000000000000000000111100 @
b00000000000000000000000001000000 C
b000000000000000000000000001111000 F
1Q
0T
1U
1X
0Y
1Z
1]
0^
1_
1b
0c
1d
1g
1h
#155000000
0!
0.
0:
#160000000
1!
b00000000000000000000000001000100 '
1.
b00000000000000000000000001000100 /
b00000000000000000000000001000100 1
b00000000000000000000000001000100 2
b00000000000000000000000001000000 3
b00000000000000000000000001000100 4
b00000000000000000000000001000100 6
b00000000000000000000000001000000 7
1:
b00000000000000000000000001000000 ;
b00000000000000000000000001000000 <
b00000000000000000000000001000000 >
b00000000000000000000000001000000 @
b00000000000000000000000001000100 C
b000000000000000000000000000000000 F
0Q
1T
0U
0V
0X
0Y
0Z
0[
0]
0^
0_
0`
0b
0c
0d
1e
0g
1h
0i
0l
0m
#165000000
0!
0.
0:
#170000000
1!
b00000000000000000000000001001000 '
1.
b00000000000000000000000001001000 /
b00000000000000000000000001001000 1
b00000000000000000000000001001000 2
b00000000000000000000000001000100 3
b00000000000000000000000001001000 4
b00000000000000000000000001001000 6
b00000000000000000000000001000100 7
1:
b00000000000000000000000001000100 ;
b00000000000000000000000001000100 <
b00000000000000000000000001000100 >
b00000000000000000000000001000100 @
b00000000000000000000000001001000 C
b000000000000000000000000000001000 F
1Q
0T
1U
1X
1Y
#175000000
0!
0.
0:
#180000000
1!
b00000000000000000000000001001100 '
1.
b00000000000000000000000001001100 /
b00000000000000000000000001001100 1
b00000000000000000000000001001100 2
b00000000000000000000000001001000 3
b00000000000000000000000001001100 4
b00000000000000000000000001001100 6
b00000000000000000000000001001000 7
1:
b00000000000000000000000001001000 ;
b00000000000000000000000001001000 <
b00000000000000000000000001001000 >
b00000000000000000000000001001000 @
b00000000000000000000000001001100 C
b000000000000000000000000000000000 F
0Q
1T
0U
1V
0X
1Y
0Z
0]
0^
#185000000
0!
0.
0:
#190000000
1!
b00000000000000000000000001010000 '
1.
b00000000000000000000000001010000 /
b00000000000000000000000001010000 1
b00000000000000000000000001010000 2
b00000000000000000000000001001100 3
b00000000000000000000000001010000 4
b00000000000000000000000001010000 6
b00000000000000000000000001001100 7
1:
b00000000000000000000000001001100 ;
b00000000000000000000000001001100 <
b00000000000000000000000001001100 >
b00000000000000000000000001001100 @
b00000000000000000000000001010000 C
b000000000000000000000000000011000 F
1Q
0T
1U
1X
0Y
1Z
1]
1^
#195000000
0!
0.
0:
#200000000
1!
b00000000000000000000000001010100 '
1.
b00000000000000000000000001010100 /
b00000000000000000000000001010100 1
b00000000000000000000000001010100 2
b00000000000000000000000001010000 3
b00000000000000000000000001010100 4
b00000000000000000000000001010100 6
b00000000000000000000000001010000 7
1:
b00000000000000000000000001010000 ;
b00000000000000000000000001010000 <
b00000000000000000000000001010000 >
b00000000000000000000000001010000 @
b00000000000000000000000001010100 C
b000000000000000000000000000000000 F
0Q
1T
0U
0V
0X
0Y
0Z
1[
0]
1^
0_
0b
0c
#205000000
0!
0.
0:
#210000000
1!
b00000000000000000000000001011000 '
1.
b00000000000000000000000001011000 /
b00000000000000000000000001011000 1
b00000000000000000000000001011000 2
b00000000000000000000000001010100 3
b00000000000000000000000001011000 4
b00000000000000000000000001011000 6
b00000000000000000000000001010100 7
1:
b00000000000000000000000001010100 ;
b00000000000000000000000001010100 <
b00000000000000000000000001010100 >
b00000000000000000000000001010100 @
b00000000000000000000000001011000 C
b000000000000000000000000000001000 F
1Q
0T
1U
1X
1Y
#215000000
0!
0.
0:
#220000000
1!
b00000000000000000000000001011100 '
1.
b00000000000000000000000001011100 /
b00000000000000000000000001011100 1
b00000000000000000000000001011100 2
b00000000000000000000000001011000 3
b00000000000000000000000001011100 4
b00000000000000000000000001011100 6
b00000000000000000000000001011000 7
1:
b00000000000000000000000001011000 ;
b00000000000000000000000001011000 <
b00000000000000000000000001011000 >
b00000000000000000000000001011000 @
b00000000000000000000000001011100 C
b000000000000000000000000000000000 F
0Q
1T
0U
1V
0X
1Y
0Z
0]
1^
0_
0b
0c
#225000000
0!
0.
0:
#230000000
1!
b00000000000000000000000001100000 '
1.
b00000000000000000000000001100000 /
b00000000000000000000000001100000 1
b00000000000000000000000001100000 2
b00000000000000000000000001011100 3
b00000000000000000000000001100000 4
b00000000000000000000000001100000 6
b00000000000000000000000001011100 7
1:
b00000000000000000000000001011100 ;
b00000000000000000000000001011100 <
b00000000000000000000000001011100 >
b00000000000000000000000001011100 @
b00000000000000000000000001100000 C
b000000000000000000000000000111000 F
1Q
0T
1U
1X
0Y
1Z
1]
0^
1_
1b
1c
#235000000
0!
0.
0:
#240000000
1!
b00000000000000000000000001100100 '
1.
b00000000000000000000000001100100 /
b00000000000000000000000001100100 1
b00000000000000000000000001100100 2
b00000000000000000000000001100000 3
b00000000000000000000000001100100 4
b00000000000000000000000001100100 6
b00000000000000000000000001100000 7
1:
b00000000000000000000000001100000 ;
b00000000000000000000000001100000 <
b00000000000000000000000001100000 >
b00000000000000000000000001100000 @
b00000000000000000000000001100100 C
b000000000000000000000000000000000 F
0Q
1T
0U
0V
0X
0Y
0Z
0[
0]
0^
0_
1`
0b
1c
0d
0g
1h
0i
0l
0m
#245000000
0!
0.
0:
#250000000
1!
b00000000000000000000000001101000 '
1.
b00000000000000000000000001101000 /
b00000000000000000000000001101000 1
b00000000000000000000000001101000 2
b00000000000000000000000001100100 3
b00000000000000000000000001101000 4
b00000000000000000000000001101000 6
b00000000000000000000000001100100 7
1:
b00000000000000000000000001100100 ;
b00000000000000000000000001100100 <
b00000000000000000000000001100100 >
b00000000000000000000000001100100 @
b00000000000000000000000001101000 C
b000000000000000000000000000001000 F
1Q
0T
1U
1X
1Y
#255000000
0!
0.
0:
#260000000
1!
b00000000000000000000000001101100 '
1.
b00000000000000000000000001101100 /
b00000000000000000000000001101100 1
b00000000000000000000000001101100 2
b00000000000000000000000001101000 3
b00000000000000000000000001101100 4
b00000000000000000000000001101100 6
b00000000000000000000000001101000 7
1:
b00000000000000000000000001101000 ;
b00000000000000000000000001101000 <
b00000000000000000000000001101000 >
b00000000000000000000000001101000 @
b00000000000000000000000001101100 C
b000000000000000000000000000000000 F
0Q
1T
0U
1V
0X
1Y
0Z
0]
0^
#265000000
0!
0.
0:
#270000000
1!
b00000000000000000000000001110000 '
1.
b00000000000000000000000001110000 /
b00000000000000000000000001110000 1
b00000000000000000000000001110000 2
b00000000000000000000000001101100 3
b00000000000000000000000001110000 4
b00000000000000000000000001110000 6
b00000000000000000000000001101100 7
1:
b00000000000000000000000001101100 ;
b00000000000000000000000001101100 <
b00000000000000000000000001101100 >
b00000000000000000000000001101100 @
b00000000000000000000000001110000 C
b000000000000000000000000000011000 F
1Q
0T
1U
1X
0Y
1Z
1]
1^
#275000000
0!
0.
0:
#280000000
1!
b00000000000000000000000001110100 '
1.
b00000000000000000000000001110100 /
b00000000000000000000000001110100 1
b00000000000000000000000001110100 2
b00000000000000000000000001110000 3
b00000000000000000000000001110100 4
b00000000000000000000000001110100 6
b00000000000000000000000001110000 7
1:
b00000000000000000000000001110000 ;
b00000000000000000000000001110000 <
b00000000000000000000000001110000 >
b00000000000000000000000001110000 @
b00000000000000000000000001110100 C
b000000000000000000000000000000000 F
0Q
1T
0U
0V
0X
0Y
0Z
1[
0]
1^
0_
0b
1c
0d
0g
1h
0i
0l
0m
#285000000
0!
0.
0:
#290000000
1!
b00000000000000000000000001111000 '
1.
b00000000000000000000000001111000 /
b00000000000000000000000001111000 1
b00000000000000000000000001111000 2
b00000000000000000000000001110100 3
b00000000000000000000000001111000 4
b00000000000000000000000001111000 6
b00000000000000000000000001110100 7
1:
b00000000000000000000000001110100 ;
b00000000000000000000000001110100 <
b00000000000000000000000001110100 >
b00000000000000000000000001110100 @
b00000000000000000000000001111000 C
b000000000000000000000000000001000 F
1Q
0T
1U
1X
1Y
#295000000
0!
0.
0:
#300000000
1!
b00000000000000000000000001111100 '
1.
b00000000000000000000000001111100 /
b00000000000000000000000001111100 1
b00000000000000000000000001111100 2
b00000000000000000000000001111000 3
b00000000000000000000000001111100 4
b00000000000000000000000001111100 6
b00000000000000000000000001111000 7
1:
b00000000000000000000000001111000 ;
b00000000000000000000000001111000 <
b00000000000000000000000001111000 >
b00000000000000000000000001111000 @
b00000000000000000000000001111100 C
b000000000000000000000000000000000 F
0Q
1T
0U
1V
0X
1Y
0Z
0]
1^
0_
0b
1c
0d
0g
1h
0i
0l
0m
#305000000
0!
0.
0:
#310000000
1!
b00000000000000000000000010000000 '
1.
b00000000000000000000000010000000 /
b00000000000000000000000010000000 1
b00000000000000000000000010000000 2
b00000000000000000000000001111100 3
b00000000000000000000000010000000 4
b00000000000000000000000010000000 6
b00000000000000000000000001111100 7
1:
b00000000000000000000000001111100 ;
b00000000000000000000000001111100 <
b00000000000000000000000001111100 >
b00000000000000000000000001111100 @
b00000000000000000000000010000000 C
b000000000000000000000000011111000 F
1Q
0T
1U
1X
0Y
1Z
1]
0^
1_
1b
0c
1d
1g
0h
1i
1l
1m
#315000000
0!
0.
0:
#320000000
1!
b00000000000000000000000010000100 '
1.
b00000000000000000000000010000100 /
b00000000000000000000000010000100 1
b00000000000000000000000010000100 2
b00000000000000000000000010000000 3
b00000000000000000000000010000100 4
b00000000000000000000000010000100 6
b00000000000000000000000010000000 7
1:
b00000000000000000000000010000000 ;
b00000000000000000000000010000000 <
b00000000000000000000000010000000 >
b00000000000000000000000010000000 @
b00000000000000000000000010000100 C
b000000000000000000000000000000000 F
0Q
1T
0U
0V
0X
0Y
0Z
0[
0]
0^
0_
0`
0b
0c
0d
0e
0g
0h
0i
1j
0l
1m
0n
0q
0r
#325000000
0!
0.
0:
#330000000
1!
b00000000000000000000000010001000 '
1.
b00000000000000000000000010001000 /
b00000000000000000000000010001000 1
b00000000000000000000000010001000 2
b00000000000000000000000010000100 3
b00000000000000000000000010001000 4
b00000000000000000000000010001000 6
b00000000000000000000000010000100 7
1:
b00000000000000000000000010000100 ;
b00000000000000000000000010000100 <
b00000000000000000000000010000100 >
b00000000000000000000000010000100 @
b00000000000000000000000010001000 C
b000000000000000000000000000001000 F
1Q
0T
1U
1X
1Y
#335000000
0!
0.
0:
